…
food <- gtrends(c("ramen", "pho", "spaghetti"), 
               geo = c("US"))

Clean up our dataframe

food_timeseries <- as_tibble(food$interest_over_time) %>% 
  mutate(date = ymd(date)) %>% # CONVERT DATE FORMAT
  filter(date < Sys.Date() - 7) # REMOVE "NOISY" DATA FROM LAST SEVEN DAYS

Quick peek at data

food_timeseries

## # A tibble: 780 x 7
##    date        hits keyword geo   time      gprop category
##    <date>     <int> <chr>   <chr> <chr>     <chr>    <int>
##  1 2016-02-07    15 ramen   US    today+5-y web          0
##  2 2016-02-14    16 ramen   US    today+5-y web          0
##  3 2016-02-21    16 ramen   US    today+5-y web          0
##  4 2016-02-28    16 ramen   US    today+5-y web          0
##  5 2016-03-06    16 ramen   US    today+5-y web          0
##  6 2016-03-13    15 ramen   US    today+5-y web          0
##  7 2016-03-20    17 ramen   US    today+5-y web          0
##  8 2016-03-27    16 ramen   US    today+5-y web          0
##  9 2016-04-03    17 ramen   US    today+5-y web          0
## 10 2016-04-10    17 ramen   US    today+5-y web          0
## # … with 770 more rows
…
One year from now we should expect to see ramen at the top followed by pho and spaghetti fighting for a close second in terms of relative search interest.

Text mining related queries

The other awesome functionality provided by the gtrendsR package is pulling top & rising queries for each topic.

Here’s a sample result for pho:

food_related <- as_tibble(food$related_queries)

food_related %>% 
  filter(keyword == 'pho')

## # A tibble: 50 x 6
##    subject related_queries value          geo   keyword category
##    <chr>   <chr>           <chr>          <chr> <chr>      <int>
##  1 100     top             pho near me    US    pho            0
##  2 49      top             pho menu       US    pho            0
##  3 28      top             pho restaurant US    pho            0
##  4 26      top             pho food       US    pho            0
##  5 23      top             pho saigon     US    pho            0
##  6 21      top             vietnamese     US    pho            0
##  7 20      top             vietnamese pho US    pho            0
##  8 19      top             pho soup       US    pho            0
##  9 18      top             pho recipe     US    pho            0
## 10 17      top             pho thai       US    pho            0
## # … with 40 more rows
…
