…
For this walkthrough we’ll use the {fuzzyjoin} #rstats package to replicate the aforementioned Excel method. In a future post we’ll build a neural net instead to achieve this for 1M+ keywords.

Load packages

library(tidyverse)

Download data

df <- read_csv("https://raw.githubusercontent.com/Eeysirhc/random_datasets/master/keywords_digital_marketing.csv")

Inspect the data

df

## # A tibble: 29 x 1
##    Keyword                            
##    <chr>                              
##  1 digital marketing agency           
##  2 what is digital marketing          
##  3 digital marketing jobs             
##  4 digital marketing salary           
##  5 digital marketing manager          
##  6 digital marketing course           
##  7 digital marketing strategy         
##  8 digital marketing services         
##  9 digital marketing specialist salary
## 10 digital marketing certificate      
## # … with 19 more rows
…
To understand how this works we’ll start small by building out the consideration identifier segment.

consideration <- as_tibble(c("what is", "blog", "specialist", 
                             "near me", "agency", "compan", 
                             "service", "example")) %>% 
  rename(consideration = value)

Then we (fuzzy) match the two dataframes with the regex_left_join function to produce the following result:

regex_left_join(df, consideration, by = c("Keyword" = "consideration")) %>% 
  replace(., is.na(.), "-") # REPLACE NA VALUES

## # A tibble: 29 x 2
##    Keyword                             consideration
##    <chr>                               <chr>        
##  1 digital marketing agency            agency       
##  2 what is digital marketing           what is      
##  3 digital marketing jobs              -            
##  4 digital marketing salary            -            
##  5 digital marketing manager           -            
##  6 digital marketing course            -            
##  7 digital marketing strategy          -            
##  8 digital marketing services          service      
##  9 digital marketing specialist salary specialist   
## 10 digital marketing certificate       -            
## # … with 19 more rows
…
