…
data %>%
  write_csv("gsc_data_raw.csv")

In the event you lose your session and need to start over you can run the following command to pick up where you left off.

data <- read_csv("gsc_data_raw.csv")

Process the data

Let’s take a peek at the data to see what we are working with (I had to anonymize for client confidentiality reasons so please use your imagination here).

data

## # A tibble: 240,000 x 6
##    date       query            clicks impressions    ctr position
##    <date>     <chr>             <dbl>       <dbl>  <dbl>    <dbl>
##  1 2019-03-06 keyword_id_4082   55715      136191 0.409      1.01
##  2 2019-03-06 keyword_id_1846   11822       26945 0.439      1.01
##  3 2019-03-06 keyword_id_464     2502       15580 0.161      2.19
##  4 2019-03-06 keyword_id_3144    1499        3424 0.438      1   
##  5 2019-03-06 keyword_id_6093    1262        4186 0.301      1.00
##  6 2019-03-06 keyword_id_7183    1220        3184 0.383      1.06
##  7 2019-03-06 keyword_id_5089    1060        2631 0.403      1.01
##  8 2019-03-06 keyword_id_10489    910        4190 0.217      1.24
##  9 2019-03-06 keyword_id_9977     623        1774 0.351      1.04
## 10 2019-03-06 keyword_id_11077    596       10284 0.0580     3.80
## # … with 239,990 more rows

Parse brand terms

Assuming all goes well, it’s very likely some of your top keywords will come from branded terms. Let’s clean this up so we don’t inadvertently skew the data in any given direction.

data_brand <- data %>%      # EDIT BELOW TO EXCLUDE YOUR OWN BRAND TERMS
  mutate(brand = case_when(grepl("your_brand_term|brand_typo|more_brands", query) ~ 'brand',
                           TRUE ~ 'nonbrand')) 

## # A tibble: 240,000 x 7
##    date       query            clicks impressions    ctr position brand   
##    <date>     <chr>             <dbl>       <dbl>  <dbl>    <dbl> <chr>   
##  1 2019-03-06 keyword_id_4082   55715      136191 0.409      1.01 brand   
##  2 2019-03-06 keyword_id_1846   11822       26945 0.439      1.01 brand   
##  3 2019-03-06 keyword_id_464     2502       15580 0.161      2.19 nonbrand
##  4 2019-03-06 keyword_id_3144    1499        3424 0.438      1    brand   
##  5 2019-03-06 keyword_id_6093    1262        4186 0.301      1.00 brand   
##  6 2019-03-06 keyword_id_7183    1220        3184 0.383      1.06 brand   
##  7 2019-03-06 keyword_id_5089    1060        2631 0.403      1.01 brand   
##  8 2019-03-06 keyword_id_10489    910        4190 0.217      1.24 nonbrand
##  9 2019-03-06 keyword_id_9977     623        1774 0.351      1.04 brand   
## 10 2019-03-06 keyword_id_11077    596       10284 0.0580     3.80 nonbrand
## # … with 239,990 more rows
…
## Warning: `data_frame()` is deprecated as of tibble 1.1.0.
## Please use `tibble()` instead.
## This warning is displayed once every 8 hours.
## Call `lifecycle::last_warnings()` to see where this warning was generated.

So what happened?

Even though keyword_id_10001 has a raw CTR of 100% (5 clicks from 5 impressions), we moved its estimated CTR down to 66% when comparing itself with the entire dataset.

## # A tibble: 29,310 x 5
##    query            clicks impressions raw_ctr fitted_ctr
##    <chr>             <dbl>       <dbl>   <dbl>      <dbl>
##  1 keyword_id_1          2           6  0.333      0.322 
##  2 keyword_id_10        51        4190  0.0122     0.0125
##  3 keyword_id_100        3           5  0.6        0.458 
##  4 keyword_id_1000      14          33  0.424      0.410 
##  5 keyword_id_10000      6          12  0.5        0.445 
##  6 keyword_id_10001      5           5  1          0.663 
##  7 keyword_id_10002     68          80  0.85       0.820 
##  8 keyword_id_10003      6          13  0.462      0.420 
##  9 keyword_id_10004     73         246  0.297      0.297 
## 10 keyword_id_10005      1           2  0.5        0.365 
## # … with 29,300 more rows
…
The last step is merging our estimated CTR by position to our keyword level data.

# CREATE INDEX
bayes_index <- bayes_ctr %>%
  select(page_group, bayes_ctr = .fitted, avg_ctr = .raw) %>%
  group_by(page_group) %>%
  summarize(bayes_benchamrk = mean(bayes_ctr))

# JOIN DATAFRAMES
bayes_ctr %>%
  select(query:impressions, page_group, avg_ctr = .raw, bayes_ctr =.fitted) %>%
  left_join(bayes_index)

## # A tibble: 29,310 x 7
##    query         clicks impressions page_group avg_ctr bayes_ctr bayes_benchamrk
##    <chr>          <dbl>       <dbl>      <dbl>   <dbl>     <dbl>           <dbl>
##  1 keyword_id_1       2           6          7  0.333     0.322            0.208
##  2 keyword_id_10     51        4190          4  0.0122    0.0125           0.226
##  3 keyword_id_1…      3           5          1  0.6       0.458            0.427
##  4 keyword_id_1…     14          33          2  0.424     0.410            0.270
##  5 keyword_id_1…      6          12          1  0.5       0.445            0.427
##  6 keyword_id_1…      5           5          1  1         0.663            0.427
##  7 keyword_id_1…     68          80          1  0.85      0.820            0.427
##  8 keyword_id_1…      6          13          2  0.462     0.420            0.270
##  9 keyword_id_1…     73         246          1  0.297     0.297            0.427
## 10 keyword_id_1…      1           2          1  0.5       0.365            0.427
## # … with 29,300 more rows
…
