…
And let’s validate our work:

netflix_clean

## # A tibble: 261 x 3
##    Date       user  title    
##    <date>     <chr> <chr>    
##  1 2019-04-29 Chris Imposters
##  2 2019-04-29 Chris Imposters
##  3 2019-04-29 Chris Imposters
##  4 2019-04-28 Chris Imposters
##  5 2019-04-28 Chris Imposters
##  6 2019-04-28 Chris Imposters
##  7 2019-04-28 Chris Imposters
##  8 2019-04-28 Chris Imposters
##  9 2019-04-28 Chris Imposters
## 10 2019-04-28 Chris Imposters
## # … with 251 more rows
…
