…
How many times does that specific point show up in our data?

puzzle %>% 
  group_by(V1, V2) %>% 
  count(sort = TRUE) %>% 
  ungroup() %>% 
  mutate(pct_total = 100 * (n / sum(n)))

## # A tibble: 912 x 4
##         V1      V2     n pct_total
##      <dbl>   <dbl> <int>     <dbl>
##  1  0.397   2.11     101     9.86 
##  2 -0.388   1.99       2     0.195
##  3 -0.0659 -0.673      2     0.195
##  4  0.0618 -1.33       2     0.195
##  5  0.637  -1.44       2     0.195
##  6  0.690   0.0478     2     0.195
##  7  0.714   0.249      2     0.195
##  8  0.715   0.503      2     0.195
##  9  0.720  -0.152      2     0.195
## 10  0.745   0.409      2     0.195
## # … with 902 more rows
…
