…
## # A tibble: 1 x 2
##   ingredient               n
##   <chr>                <int>
## 1 hot red pepper sauce     5

Fix untidy data

To follow “tidy” principles, we need one row per observation.

bc %>% 
  filter(str_detect(ingredient, ",")) 

## # A tibble: 85 x 2
##    name                  ingredient                                             
##    <chr>                 <chr>                                                  
##  1 John Collins          orange and lemon wheels, maraschino cherry             
##  2 Irish Shillelagh      fresh raspberries and strawberries, 2 peach slices, ma…
##  3 Underneath The Mango… lime wedge, sweet chili powder                         
##  4 Emperor Norton's Mis… fresh strawberries, cut in halves                      
##  5 Toasted Drop          lemon wedge, cinnamon sugar                            
##  6 Stockholm 75          lemon wedge, superfine sugar                           
##  7 Salty Dog             lemon wedge, coarse salt                               
##  8 Rouxby Red            for glass lemon wedge, coarse salt                     
##  9 Redhead Martini       strawberries, cut into halves                          
## 10 Canadian Breeze       pineapple wedge, maraschino cherry                     
## # … with 75 more rows
…
# EXTRACT UNTIDY DATA THEN CLEAN
bc_untidy <- bc %>% 
  filter(str_detect(ingredient, ",")) %>% 
  mutate(ingredient = str_split(ingredient, ", ")) %>% 
  unnest(ingredient)

# COMBINE BOTH DATAFRAMES
bc_clean <- rbind(bc_tidy, bc_untidy) %>% 
  distinct()

bc_untidy

## # A tibble: 193 x 2
##    name                      ingredient                        
##    <chr>                     <chr>                             
##  1 John Collins              orange and lemon wheels           
##  2 John Collins              maraschino cherry                 
##  3 Irish Shillelagh          fresh raspberries and strawberries
##  4 Irish Shillelagh          2 peach slices                    
##  5 Irish Shillelagh          maraschino cherry                 
##  6 Underneath The Mango Tree lime wedge                        
##  7 Underneath The Mango Tree sweet chili powder                
##  8 Emperor Norton's Mistress fresh strawberries                
##  9 Emperor Norton's Mistress cut in halves                     
## 10 Toasted Drop              lemon wedge                       
## # … with 183 more rows
…
